Page 1 | SeungZZang's Blog
…
3
4
5
6
7
8
9
10
11
12
13
14
15

## # A tibble: 234 × 7
## # Groups:   trans [2]
##    manufacturer trans  drv     cty   hwy total  mean
##    <chr>        <chr>  <chr> <int> <int> <int> <dbl>
##  1 audi         auto   f        18    29    47  23.5
##  2 audi         manual f        21    29    50  25  
##  3 audi         manual f        20    31    51  25.5
##  4 audi         auto   f        21    30    51  25.5
##  5 audi         auto   f        16    26    42  21  
##  6 audi         manual f        18    26    44  22  
##  7 audi         auto   f        18    27    45  22.5
##  8 audi         manual 4        18    26    44  22  
##  9 audi         auto   4        16    25    41  20.5
## 10 audi         manual 4        20    28    48  24  
## # … with 224 more rows
…
